<?xml version="1.0" standalone="no"?>
<!DOCTYPE svg PUBLIC "-//W3C//DTD SVG 1.1//EN" "http://www.w3.org/Graphics/SVG/1.1/DTD/svg11.dtd" >
<svg xmlns="http://www.w3.org/2000/svg">
<metadata>Generated by IcoMoon</metadata>
<defs>
<font id="icomoon" horiz-adv-x="512">
<font-face units-per-em="512" ascent="480" descent="-32" />
<missing-glyph horiz-adv-x="512" />
<glyph unicode="&#x20;" d="" horiz-adv-x="256" />
<glyph unicode="&#x63;" d="M449.248 480l33.622-285.78-37.74-4.44-30.026 255.22h-318.208l-30.026-255.22-37.74 4.44 33.621 285.78zM128 416h256v-32h-256zM128 352h256v-32h-256zM128 288h256v-32h-256zM128 224h256v-32h-256zM496 160h-480c-8.8 0-13.723-6.83-10.94-15.179l53.88-161.642c2.783-8.349 12.26-15.179 21.060-15.179h352c8.8 0 18.276 6.83 21.060 15.179l53.881 161.643c2.783 8.348-2.141 15.178-10.941 15.178zM320 96h-128v32h128v-32z" />
<glyph unicode="&#x64;" d="M441.984 144.72l-15.328-81.152h-341.312l-15.328 81.152h-38.16v-128.992h448.288v128.992h-38.16zM432.32 288.864h-112.352v46.88h-127.904v-46.88h-111.28l174.624-182.592 176.912 182.592zM319.952 416.288h-127.904v-17.056h127.904v17.056zM319.952 384.432h-127.904v-32.608h127.904v32.608z" />
<glyph unicode="&#x65;" d="M400 416h-288c-26.51 0-48-21.49-48-48v-16h384v16c0 26.51-21.49 48-48 48zM316.16 448l7.058-50.5h-134.436l7.057 50.5h120.321zM320 480h-128c-13.2 0-25.495-10.696-27.321-23.769l-9.357-66.962c-1.827-13.073 7.478-23.769 20.678-23.769h160c13.2 0 22.505 10.696 20.679 23.769l-9.357 66.962c-1.827 13.073-14.122 23.769-27.322 23.769v0zM408 320h-304c-17.6 0-30.696-14.341-29.103-31.869l26.206-288.263c1.593-17.527 17.297-31.868 34.897-31.868h240c17.6 0 33.304 14.341 34.897 31.868l26.205 288.263c1.594 17.528-11.502 31.869-29.102 31.869zM192 32h-48l-16 224h64v-224zM288 32h-64v224h64v-224zM368 32h-48v224h64l-16-224z" />
<glyph unicode="&#x67;" d="M463.906 480h-144.281c-26.453 0-63.398-15.303-82.102-34.007l-223.495-223.495c-18.704-18.704-18.704-49.312 0-68.016l172.455-172.453c18.704-18.705 49.311-18.705 68.015 0l223.495 223.494c18.704 18.705 34.007 55.651 34.007 82.102v144.281c0 26.452-21.643 48.094-48.094 48.094zM400 320c-26.51 0-48 21.49-48 48s21.49 48 48 48 48-21.49 48-48-21.49-48-48-48z" />
<glyph unicode="&#x68;" d="M256.672 346.48c0 0-32 68.192-104 68.192-78.672 0-120-66.672-120-133.328 0-110.672 224-248 224-248s222.656 136 222.656 248c0 68-42.656 133.328-118.656 133.328s-104-68.192-104-68.192z" />
<glyph unicode="&#x69;" d="M64 352v-320h448v320h-448zM480 85.333l-64 106.667-72.533-60.444-55.467 92.444-192-160v256h384v-234.667zM128 240c0 26.51 21.49 48 48 48s48-21.49 48-48c0-26.51-21.49-48-48-48-26.51 0-48 21.49-48 48zM448 416h-448v-320h32v288h416z" />
<glyph unicode="&#x6c;" d="M0 224l256-256v160h255.999l0.001 192h-256v160z" />
<glyph unicode="&#x70;" d="M507.331 68.67c-0.002 0.002-0.004 0.004-0.006 0.005l-155.322 155.325 155.322 155.325c0.002 0.002 0.004 0.003 0.006 0.005 1.672 1.673 2.881 3.627 3.656 5.708 2.123 5.688 0.912 12.341-3.662 16.915l-73.373 73.373c-4.574 4.573-11.225 5.783-16.914 3.66-2.080-0.775-4.035-1.984-5.709-3.655 0-0.002-0.002-0.003-0.004-0.005l-155.324-155.326-155.324 155.325c-0.002 0.002-0.003 0.003-0.005 0.005-1.673 1.671-3.627 2.88-5.707 3.655-5.69 2.124-12.341 0.913-16.915-3.66l-73.374-73.374c-4.574-4.574-5.784-11.226-3.661-16.914 0.776-2.080 1.985-4.036 3.656-5.708 0.002-0.001 0.003-0.003 0.005-0.005l155.325-155.324-155.325-155.326c-0.001-0.002-0.003-0.003-0.004-0.005-1.671-1.673-2.88-3.627-3.657-5.707-2.124-5.688-0.913-12.341 3.661-16.915l73.374-73.373c4.575-4.574 11.226-5.784 16.915-3.661 2.080 0.776 4.035 1.985 5.708 3.656 0.001 0.002 0.003 0.003 0.005 0.005l155.324 155.325 155.324-155.325c0.002-0.001 0.004-0.003 0.006-0.004 1.674-1.672 3.627-2.881 5.707-3.657 5.689-2.123 12.342-0.913 16.914 3.661l73.373 73.374c4.574 4.574 5.785 11.227 3.662 16.915-0.776 2.080-1.985 4.034-3.657 5.707z" />
<glyph unicode="&#x71;" d="M256 192l128 128h-96v128h-64v-128h-96zM372.363 244.364l-35.87-35.871 130.040-48.493-210.533-78.509-210.533 78.509 130.040 48.493-35.871 35.871-139.636-52.364v-128l256-96 256 96v128z" />
<glyph unicode="&#x72;" d="M512 224l-256 256v-160h-255.999l-0.001-192h256v-160z" />
<glyph unicode="&#x73;" d="M415.92 174.912h-21.184c-3.44-12.464-8.368-24.288-14.688-35.248l19.584-19.568c12.528-12.528 12.528-32.848 0-45.376l-11.344-11.344c-12.528-12.528-32.848-12.528-45.376 0l-19.712 19.696c-10.928-6.224-22.704-11.072-35.104-14.448v-20.544c0-17.712-14.352-32.080-32.080-32.080h-16.032c-17.712 0-32.096 14.352-32.096 32.080v20.544c-12.384 3.376-24.176 8.24-35.104 14.448l-19.696-19.696c-12.512-12.528-32.832-12.528-45.36 0l-11.36 11.344c-12.528 12.528-12.528 32.848 0 45.376l19.584 19.568c-6.32 10.976-11.248 22.784-14.704 35.248h-21.168c-17.728 0-32.080 14.352-32.080 32.064v16.048c0 17.712 14.352 32.080 32.080 32.080h20.928c3.312 12.336 8.048 24.080 14.192 34.976l-18.832 18.816c-12.528 12.528-12.528 32.848 0 45.376l11.344 11.328c12.528 12.528 32.848 12.528 45.36 0l18.448-18.448c11.296 6.576 23.488 11.696 36.352 15.2v21.568c0.016 17.728 14.4 32.080 32.112 32.080h16.032c17.712 0 32.080-14.352 32.080-32.080v-21.552c12.896-3.52 25.072-8.64 36.352-15.216l18.448 18.448c12.528 12.528 32.848 12.528 45.376 0l11.344-11.328c12.528-12.528 12.528-32.848 0-45.376l-18.816-18.816c6.144-10.896 10.88-22.64 14.208-34.992h20.928c17.712 0 32.080-14.368 32.080-32.080v-16.048c-0.016-17.696-14.368-32.048-32.096-32.048zM248 302.72c-48.72 0-88.224-39.504-88.224-88.224s39.504-88.224 88.224-88.224 88.224 39.504 88.224 88.224-39.504 88.224-88.224 88.224zM248 175.408c-22.144 0-40.112 17.936-40.112 40.096 0 22.144 17.968 40.096 40.112 40.096s40.096-17.952 40.096-40.096c0-22.16-17.952-40.096-40.096-40.096z" />
<glyph unicode="&#x74;" d="M128 64c0-26.496 21.488-48 48-48h160c26.496 0 48 21.504 48 48l32 256h-320l32-256zM304 272h32v-208h-32v208zM240 272h32v-208h-32v208zM176 272h32v-208h-32v208zM408 384h-104c0 0-7.168 32-16 32h-64c-8.848 0-16-32-16-32h-104c-13.264 0-24-10.736-24-24s0-24 0-24h352c0 0 0 10.736 0 24s-10.752 24-24 24z" />
<glyph unicode="&#x75;" d="M96-32h320l32 352h-384zM320 416v64h-128v-64h-160v-96l32 32h384l32-32v96h-160zM288 416h-64v32h64v-32z" />
<glyph unicode="&#x77;" d="M466.895 174.875c-26.863 46.527-10.708 106.152 36.076 133.244l-50.313 87.146c-14.375-8.427-31.088-13.259-48.923-13.259-53.768 0-97.354 43.873-97.354 97.995h-100.629c0.133-16.705-4.037-33.641-12.979-49.126-26.862-46.528-86.578-62.351-133.431-35.379l-50.312-87.146c14.485-8.236 27.025-20.294 35.943-35.739 26.819-46.454 10.756-105.96-35.854-133.112l50.313-87.146c14.325 8.348 30.958 13.127 48.7 13.127 53.598 0 97.072-43.596 97.35-97.479h100.627c-0.043 16.537 4.136 33.285 12.983 48.609 26.818 46.453 86.388 62.297 133.207 35.506l50.313 87.145c-14.39 8.233-26.846 20.249-35.717 35.614zM256 120.334c-57.254 0-103.668 46.412-103.668 103.667 0 57.254 46.413 103.667 103.668 103.667 57.254 0 103.666-46.413 103.666-103.667-0.001-57.255-46.412-103.667-103.666-103.667z" />
<glyph unicode="&#x78;" d="M256 16c-114.88 0-208 93.12-208 208s93.12 208 208 208 208-93.12 208-208-93.12-208-208-208zM351.376 284.656c3.904 3.904 3.904 10.256 0 14.16l-21.248 21.232c-3.904 3.904-10.256 3.904-14.16 0l-60.176-60.176-60.176 60.176c-3.904 3.904-10.256 3.904-14.16 0l-21.248-21.232c-3.904-3.904-3.904-10.256 0-14.16l60.192-60.192-60.192-60.16c-3.904-3.904-3.904-10.256 0-14.16l21.248-21.248c3.904-3.904 10.256-3.904 14.16 0l60.176 60.192 60.176-60.192c3.904-3.904 10.256-3.904 14.16 0l21.248 21.248c3.904 3.904 3.904 10.256 0 14.16l-60.192 60.16 60.192 60.192z" />
<glyph unicode="&#xe600;" d="M274.592 410.544c-168.992 0-274.592-186.544-274.592-186.544s104.592-186.544 274.592-186.544c159.008 0 279.696 186.544 279.696 186.544s-119.696 186.544-279.696 186.544zM276.096 139.984c-46.304 0-83.808 37.52-83.808 83.808s37.52 83.824 83.808 83.824 83.824-37.536 83.824-83.824-37.536-83.808-83.824-83.808zM276.608 265.696c-23.040 0-41.712-18.688-41.712-41.712 0-23.040 18.672-41.712 41.712-41.712s41.712 18.672 41.712 41.712c0.016 23.024-18.656 41.712-41.712 41.712z" horiz-adv-x="560" />
<glyph unicode="&#xe601;" d="M496 288h-176v176c0 8.836-7.164 16-16 16h-96c-8.836 0-16-7.164-16-16v-176h-176c-8.836 0-16-7.164-16-16v-96c0-8.836 7.164-16 16-16h176v-176c0-8.836 7.164-16 16-16h96c8.836 0 16 7.164 16 16v176h176c8.836 0 16 7.164 16 16v96c0 8.836-7.164 16-16 16z" />
</font></defs></svg>